…
---

## Tidyverse Integration

All new functions follow tidyverse principles:

### 1. **Tidy Data Output**
```r
# Factor loadings as a tibble
efa_results$factor_loadings
#> # A tibble: 27 × 6
#>    item      factor    loading abs_loading strength        label
#>    <chr>     <chr>       <dbl>       <dbl> <chr>           <chr>
#>  1 quality_1 Factor1     0.85        0.85  Strong (≥0.70)  quality_1
#>  2 quality_2 Factor1     0.82        0.82  Strong (≥0.70)  quality_2
#>  # ... with 25 more rows
```
…
